…
summary_city_df =
  homicide_df %>%
  group_by(city) %>%
  summarize(
    unsolved = sum(resolution == "unsolved"),
    solved = sum(resolution == "solved"),
    total = n()
    )

summary_city_df
```

    ## # A tibble: 50 × 4
    ##    city        unsolved solved total
    ##    <chr>          <int>  <int> <int>
    ##  1 Albuquerque      146    232   378
    ##  2 Atlanta          373    600   973
    ##  3 Baltimore       1825   1002  2827
    ##  4 Baton Rouge      196    228   424
    ##  5 Birmingham       347    453   800
    ##  6 Boston           310    304   614
    ##  7 Buffalo          319    202   521
    ##  8 Charlotte        206    481   687
    ##  9 Chicago         4073   1462  5535
    ## 10 Cincinnati       309    385   694
    ## # … with 40 more rows
…
